…
    ## [1] "Asia"     "Europe"   "Africa"   "Americas" NA         "FSU"     
    ## [7] "Oceania"

What’s going on with the empty continent and FSU?

``` r
(empty_continent <- le_raw %>%
   filter(is.na(continent)) %>%
   select(country) %>%
   unique())
```

    ## # A tibble: 30 x 1
    ##    country         
    ##    <chr>           
    ##  1 Armenia         
    ##  2 Aruba           
    ##  3 Australia       
    ##  4 Bahamas, The    
    ##  5 Barbados        
    ##  6 Belize          
    ##  7 Canada          
    ##  8 French Guiana   
    ##  9 French Polynesia
    ## 10 Georgia         
    ## # ... with 20 more rows
…
    ## .
    ##   1   2   3 
    ##  28  44 188

``` r
c_dat %>%
  filter(total < 3)
```

    ## # A tibble: 72 x 5
    ##    country                pop   le    gdp   total
    ##    <chr>                  <lgl> <lgl> <lgl> <int>
    ##  1 Akrotiri and Dhekelia  TRUE  FALSE FALSE     1
    ##  2 Åland                  TRUE  TRUE  FALSE     2
    ##  3 American Samoa         TRUE  FALSE TRUE      2
    ##  4 Andorra                TRUE  FALSE TRUE      2
    ##  5 Anguilla               TRUE  FALSE TRUE      2
    ##  6 Antigua and Barbuda    TRUE  FALSE TRUE      2
    ##  7 Bermuda                TRUE  FALSE TRUE      2
    ##  8 British Virgin Islands TRUE  FALSE TRUE      2
    ##  9 Cayman Islands         TRUE  FALSE TRUE      2
    ## 10 Channel Islands        TRUE  TRUE  FALSE     2
    ## # ... with 62 more rows
…
